^C:\USERS\LORDE\ONEDRIVE\РОБОЧИЙ СТІЛ\АЛГОРИТМИ\LAB01\TASK3\X64\DEBUG\TASK3.OBJ
/OUT:"C:\USERS\LORDE\ONEDRIVE\РОБОЧИЙ СТІЛ\АЛГОРИТМИ\LAB01\X64\DEBUG\TASK3.EXE" /INCREMENTAL /ILK:"X64\DEBUG\TASK3.ILK" /NOLOGO KERNEL32.LIB USER32.LIB GDI32.LIB WINSPOOL.LIB COMDLG32.LIB ADVAPI32.LIB SHELL32.LIB OLE32.LIB OLEAUT32.LIB UUID.LIB ODBC32.LIB ODBCCP32.LIB /MANIFEST /MANIFESTUAC:"level='asInvoker' uiAccess='false'" /manifest:embed /DEBUG /PDB:"C:\USERS\LORDE\ONEDRIVE\РОБОЧИЙ СТІЛ\АЛГОРИТМИ\LAB01\X64\DEBUG\TASK3.PDB" /SUBSYSTEM:CONSOLE /TLBID:1 /DYNAMICBASE /NXCOMPAT /IMPLIB:"C:\USERS\LORDE\ONEDRIVE\РОБОЧИЙ СТІЛ\АЛГОРИТМИ\LAB01\X64\DEBUG\TASK3.LIB" /MACHINE:X64 X64\DEBUG\TASK3.OBJ
^C:\USERS\LORDE\ONEDRIVE\РОБОЧИЙ СТІЛ\АЛГОРИТМИ(SELL)\LAB01\TASK3\X64\DEBUG\TASK3.OBJ
/OUT:"C:\USERS\LORDE\ONEDRIVE\РОБОЧИЙ СТІЛ\АЛГОРИТМИ(SELL)\LAB01\X64\DEBUG\TASK3.EXE" /INCREMENTAL /ILK:"X64\DEBUG\TASK3.ILK" /NOLOGO KERNEL32.LIB USER32.LIB GDI32.LIB WINSPOOL.LIB COMDLG32.LIB ADVAPI32.LIB SHELL32.LIB OLE32.LIB OLEAUT32.LIB UUID.LIB ODBC32.LIB ODBCCP32.LIB /MANIFEST /MANIFESTUAC:"level='asInvoker' uiAccess='false'" /manifest:embed /DEBUG /PDB:"C:\USERS\LORDE\ONEDRIVE\РОБОЧИЙ СТІЛ\АЛГОРИТМИ(SELL)\LAB01\X64\DEBUG\TASK3.PDB" /SUBSYSTEM:CONSOLE /TLBID:1 /DYNAMICBASE /NXCOMPAT /IMPLIB:"C:\USERS\LORDE\ONEDRIVE\РОБОЧИЙ СТІЛ\АЛГОРИТМИ(SELL)\LAB01\X64\DEBUG\TASK3.LIB" /MACHINE:X64 X64\DEBUG\TASK3.OBJ
