^C:\USERS\LORDE\ONEDRIVE\РОБОЧИЙ СТІЛ\АЛГОРИТМИ(SELL)\LAB01\TASK1\TASK1.CPP
C:\USERS\LORDE\ONEDRIVE\Робочий стіл\Алгоритми(SELL)\LAB01\TASK1\X64\DEBUG\VC143.PDB
C:\USERS\LORDE\ONEDRIVE\Робочий стіл\Алгоритми(SELL)\LAB01\TASK1\X64\DEBUG\VC143.IDB
C:\USERS\LORDE\ONEDRIVE\Робочий стіл\Алгоритми(SELL)\LAB01\TASK1\X64\DEBUG\TASK1.OBJ
