^C:\USERS\LORDE\ONEDRIVE\РОБОЧИЙ СТІЛ\АЛГОРИТМИ(SELL)\LAB05\TASK2\X64\DEBUG\TASK2.OBJ
C:\USERS\LORDE\ONEDRIVE\Робочий стіл\Алгоритми(SELL)\LAB05\X64\DEBUG\TASK2.EXE
C:\USERS\LORDE\ONEDRIVE\Робочий стіл\Алгоритми(SELL)\LAB05\TASK2\X64\DEBUG\TASK2.ILK
C:\USERS\LORDE\ONEDRIVE\Робочий стіл\Алгоритми(SELL)\LAB05\X64\DEBUG\TASK2.PDB
